[
    {
        "nome": {
            "title": "Mrs",
            "first": "مهدیس",
            "last": "سهيلي راد"
        },
        "phone": "037-21067264",
        "picture": {
            "large": "https://randomuser.me/api/portraits/women/20.jpg",
            "medium": "https://randomuser.me/api/portraits/med/women/20.jpg",
            "thumbnail": "https://randomuser.me/api/portraits/thumb/women/20.jpg"
        },
        "email": "mhdys.shylyrd@example.com",
        "location": {
            "street": {
                "number": 3536,
                "nome": "پیروزی"
            },
            "city": "شیراز",
            "state": "خراسان جنوبی",
            "country": "Iran",
            "postcode": 55089,
            "coordinates": {
                "latitude": "27.8185",
                "longitude": "125.0292"
            },
            "timezone": {
                "offset": "-9:00",
                "description": "Alaska"
            }
        },
        "id": "892833ac-efa1-48a6-b922-5bd88c5c18cf",
        "favorite": 0
    },
    {
        "nome": {
            "title": "Miss",
            "first": "Julia",
            "last": "Iglesias"
        },
        "phone": "960-780-614",
        "picture": {
            "large": "https://randomuser.me/api/portraits/women/24.jpg",
            "medium": "https://randomuser.me/api/portraits/med/women/24.jpg",
            "thumbnail": "https://randomuser.me/api/portraits/thumb/women/24.jpg"
        },
        "email": "julia.iglesias@example.com",
        "location": {
            "street": {
                "number": 2687,
                "nome": "Calle de Toledo"
            },
            "city": "Toledo",
            "state": "Cantabria",
            "country": "Spain",
            "postcode": 15412,
            "coordinates": {
                "latitude": "-37.4723",
                "longitude": "63.3909"
            },
            "timezone": {
                "offset": "-4:00",
                "description": "Atlantic Time (Canada), Caracas, La Paz"
            }
        },
        "id": "8cf652cf-6b4a-462a-b02f-c12dd6eeea1c",
        "favorite": 1
    },
    {
        "nome": {
            "title": "Mr",
            "first": "Pracídio",
            "last": "Barros"
        },
        "phone": "(60) 8847-8951",
        "picture": {
            "large": "https://randomuser.me/api/portraits/men/53.jpg",
            "medium": "https://randomuser.me/api/portraits/med/men/53.jpg",
            "thumbnail": "https://randomuser.me/api/portraits/thumb/men/53.jpg"
        },
        "email": "pracidio.barros@example.com",
        "location": {
            "street": {
                "number": 5115,
                "nome": "Rua Alagoas "
            },
            "city": "Vitória",
            "state": "Mato Grosso do Sul",
            "country": "Brazil",
            "postcode": 92514,
            "coordinates": {
                "latitude": "-42.4071",
                "longitude": "43.9516"
            },
            "timezone": {
                "offset": "+5:45",
                "description": "Kathmandu"
            }
        },
        "id": "f7a87b69-dbd9-4712-883c-e0f5176bc06e",
        "favorite": 0
    },
    {
        "nome": {
            "title": "Mr",
            "first": "Dhruva",
            "last": "Freitas"
        },
        "phone": "(67) 6098-7525",
        "picture": {
            "large": "https://randomuser.me/api/portraits/men/72.jpg",
            "medium": "https://randomuser.me/api/portraits/med/men/72.jpg",
            "thumbnail": "https://randomuser.me/api/portraits/thumb/men/72.jpg"
        },
        "email": "dhruva.freitas@example.com",
        "location": {
            "street": {
                "number": 222,
                "nome": "Rua Dois"
            },
            "city": "Codó",
            "state": "Espírito Santo",
            "country": "Brazil",
            "postcode": 42335,
            "coordinates": {
                "latitude": "-74.1723",
                "longitude": "92.2203"
            },
            "timezone": {
                "offset": "-4:00",
                "description": "Atlantic Time (Canada), Caracas, La Paz"
            }
        },
        "id": "2b710be1-1bba-4605-a6b9-7d258b1710c1",
        "favorite": 0
    },
    {
        "nome": {
            "title": "Mr",
            "first": "Valentin",
            "last": "Santiago"
        },
        "phone": "910-917-849",
        "picture": {
            "large": "https://randomuser.me/api/portraits/men/82.jpg",
            "medium": "https://randomuser.me/api/portraits/med/men/82.jpg",
            "thumbnail": "https://randomuser.me/api/portraits/thumb/men/82.jpg"
        },
        "email": "valentin.santiago@example.com",
        "location": {
            "street": {
                "number": 7202,
                "nome": "Avenida de Burgos"
            },
            "city": "Móstoles",
            "state": "Islas Baleares",
            "country": "Spain",
            "postcode": 31835,
            "coordinates": {
                "latitude": "60.1588",
                "longitude": "150.0379"
            },
            "timezone": {
                "offset": "-3:30",
                "description": "Newfoundland"
            }
        },
        "id": "dafff2c2-0cb7-4c2e-8684-cf4f3a18885f",
        "favorite": 1
    },
    {
        "nome": {
            "title": "Mr",
            "first": "Jerome",
            "last": "Cox"
        },
        "phone": "07-7233-8877",
        "picture": {
            "large": "https://randomuser.me/api/portraits/men/20.jpg",
            "medium": "https://randomuser.me/api/portraits/med/men/20.jpg",
            "thumbnail": "https://randomuser.me/api/portraits/thumb/men/20.jpg"
        },
        "email": "jerome.cox@example.com",
        "location": {
            "street": {
                "number": 8862,
                "nome": "Dane St"
            },
            "city": "Maitland",
            "state": "Victoria",
            "country": "Australia",
            "postcode": 2064,
            "coordinates": {
                "latitude": "40.0227",
                "longitude": "41.7194"
            },
            "timezone": {
                "offset": "-4:00",
                "description": "Atlantic Time (Canada), Caracas, La Paz"
            }
        },
        "id": "79de095c-ddc3-411e-a5d0-e6cf593b838a",
        "favorite": 1
    },
    {
        "nome": {
            "title": "Mr",
            "first": "Davut",
            "last": "Beşok"
        },
        "phone": "(272)-344-8154",
        "picture": {
            "large": "https://randomuser.me/api/portraits/men/61.jpg",
            "medium": "https://randomuser.me/api/portraits/med/men/61.jpg",
            "thumbnail": "https://randomuser.me/api/portraits/thumb/men/61.jpg"
        },
        "email": "davut.besok@example.com",
        "location": {
            "street": {
                "number": 5015,
                "nome": "Şehitler Cd"
            },
            "city": "Afyonkarahisar",
            "state": "Çorum",
            "country": "Turkey",
            "postcode": 27091,
            "coordinates": {
                "latitude": "69.7419",
                "longitude": "-95.6433"
            },
            "timezone": {
                "offset": "-4:00",
                "description": "Atlantic Time (Canada), Caracas, La Paz"
            }
        },
        "id": "5eca54d8-2d60-4683-9096-b013733432b7",
        "favorite": 0
    },
    {
        "nome": {
            "title": "Mr",
            "first": "Nathan",
            "last": "Holtkamp"
        },
        "phone": "(029)-437-9328",
        "picture": {
            "large": "https://randomuser.me/api/portraits/men/68.jpg",
            "medium": "https://randomuser.me/api/portraits/med/men/68.jpg",
            "thumbnail": "https://randomuser.me/api/portraits/thumb/men/68.jpg"
        },
        "email": "nathan.holtkamp@example.com",
        "location": {
            "street": {
                "number": 7477,
                "nome": "Bundersestraat"
            },
            "city": "Eelderwolde",
            "state": "Flevoland",
            "country": "Netherlands",
            "postcode": 99051,
            "coordinates": {
                "latitude": "-16.8342",
                "longitude": "65.9302"
            },
            "timezone": {
                "offset": "-4:00",
                "description": "Atlantic Time (Canada), Caracas, La Paz"
            }
        },
        "id": "43359dae-7e91-4fd3-865c-77e4ebca9975",
        "favorite": 0
    },
    {
        "nome": {
            "title": "Mrs",
            "first": "Melike",
            "last": "Çevik"
        },
        "phone": "(403)-703-3378",
        "picture": {
            "large": "https://randomuser.me/api/portraits/women/6.jpg",
            "medium": "https://randomuser.me/api/portraits/med/women/6.jpg",
            "thumbnail": "https://randomuser.me/api/portraits/thumb/women/6.jpg"
        },
        "email": "melike.cevik@example.com",
        "location": {
            "street": {
                "number": 9515,
                "nome": "Şehitler Cd"
            },
            "city": "Aksaray",
            "state": "Yozgat",
            "country": "Turkey",
            "postcode": 67600,
            "coordinates": {
                "latitude": "-35.3382",
                "longitude": "-63.5062"
            },
            "timezone": {
                "offset": "+4:00",
                "description": "Abu Dhabi, Muscat, Baku, Tbilisi"
            }
        },
        "id": "9ad7717a-9c10-4281-8572-c47c5f6cd459",
        "favorite": 1
    },
    {
        "nome": {
            "title": "Mr",
            "first": "Samuel",
            "last": "Smith"
        },
        "phone": "(341)-530-2965",
        "picture": {
            "large": "https://randomuser.me/api/portraits/men/86.jpg",
            "medium": "https://randomuser.me/api/portraits/med/men/86.jpg",
            "thumbnail": "https://randomuser.me/api/portraits/thumb/men/86.jpg"
        },
        "email": "samuel.smith@example.com",
        "location": {
            "street": {
                "number": 2290,
                "nome": "Lake Terrace"
            },
            "city": "Whanganui",
            "state": "Gisborne",
            "country": "New Zealand",
            "postcode": 38780,
            "coordinates": {
                "latitude": "-55.8174",
                "longitude": "-173.4622"
            },
            "timezone": {
                "offset": "+5:30",
                "description": "Bombay, Calcutta, Madras, New Delhi"
            }
        },
        "id": "7044bc00-3b99-4eed-ba21-6cc3f6656287",
        "favorite": 0
    },
    {
        "nome": {
            "title": "Mr",
            "first": "Basile",
            "last": "Masson"
        },
        "phone": "05-11-45-17-09",
        "picture": {
            "large": "https://randomuser.me/api/portraits/men/73.jpg",
            "medium": "https://randomuser.me/api/portraits/med/men/73.jpg",
            "thumbnail": "https://randomuser.me/api/portraits/thumb/men/73.jpg"
        },
        "email": "basile.masson@example.com",
        "location": {
            "street": {
                "number": 8900,
                "nome": "Rue Courbet"
            },
            "city": "Lille",
            "state": "Corse-du-Sud",
            "country": "France",
            "postcode": 37763,
            "coordinates": {
                "latitude": "19.6768",
                "longitude": "155.7096"
            },
            "timezone": {
                "offset": "+7:00",
                "description": "Bangkok, Hanoi, Jakarta"
            }
        },
        "id": "fb4a49f2-3575-4748-8b2e-342d4c1d8b19",
        "favorite": 0
    },
    {
        "nome": {
            "title": "Mr",
            "first": "Niels",
            "last": "Moll"
        },
        "phone": "0173-3473360",
        "picture": {
            "large": "https://randomuser.me/api/portraits/men/81.jpg",
            "medium": "https://randomuser.me/api/portraits/med/men/81.jpg",
            "thumbnail": "https://randomuser.me/api/portraits/thumb/men/81.jpg"
        },
        "email": "niels.moll@example.com",
        "location": {
            "street": {
                "number": 3245,
                "nome": "Feldstraße"
            },
            "city": "Dormagen",
            "state": "Baden-Württemberg",
            "country": "Germany",
            "postcode": 52946,
            "coordinates": {
                "latitude": "40.3803",
                "longitude": "173.0808"
            },
            "timezone": {
                "offset": "+1:00",
                "description": "Brussels, Copenhagen, Madrid, Paris"
            }
        },
        "id": "7ade0a34-b0ef-4829-9a01-13a1e74a2092",
        "favorite": 0
    },
    {
        "nome": {
            "title": "Ms",
            "first": "Amelia",
            "last": "Ferguson"
        },
        "phone": "051-603-3186",
        "picture": {
            "large": "https://randomuser.me/api/portraits/women/46.jpg",
            "medium": "https://randomuser.me/api/portraits/med/women/46.jpg",
            "thumbnail": "https://randomuser.me/api/portraits/thumb/women/46.jpg"
        },
        "email": "amelia.ferguson@example.com",
        "location": {
            "street": {
                "number": 2137,
                "nome": "The Drive"
            },
            "city": "Portarlington",
            "state": "Offaly",
            "country": "Ireland",
            "postcode": 53330,
            "coordinates": {
                "latitude": "25.2004",
                "longitude": "72.8608"
            },
            "timezone": {
                "offset": "+2:00",
                "description": "Kaliningrad, South Africa"
            }
        },
        "id": "944e3e17-f4b7-44c4-8c5d-4a0d44d0ac8e",
        "favorite": 0
    },
    {
        "nome": {
            "title": "Mrs",
            "first": "Blanche",
            "last": "Rocha"
        },
        "phone": "(72) 7931-5159",
        "picture": {
            "large": "https://randomuser.me/api/portraits/women/49.jpg",
            "medium": "https://randomuser.me/api/portraits/med/women/49.jpg",
            "thumbnail": "https://randomuser.me/api/portraits/thumb/women/49.jpg"
        },
        "email": "blanche.rocha@example.com",
        "location": {
            "street": {
                "number": 6484,
                "nome": "Rua Santo Antônio "
            },
            "city": "Uruguaiana",
            "state": "Alagoas",
            "country": "Brazil",
            "postcode": 52894,
            "coordinates": {
                "latitude": "49.6214",
                "longitude": "91.4956"
            },
            "timezone": {
                "offset": "+4:00",
                "description": "Abu Dhabi, Muscat, Baku, Tbilisi"
            }
        },
        "id": "36dd81ff-dfe1-40c2-9828-785ef0506b4d",
        "favorite": 0
    },
    {
        "nome": {
            "title": "Mr",
            "first": "Bing",
            "last": "Hattink"
        },
        "phone": "(851)-013-5557",
        "picture": {
            "large": "https://randomuser.me/api/portraits/men/60.jpg",
            "medium": "https://randomuser.me/api/portraits/med/men/60.jpg",
            "thumbnail": "https://randomuser.me/api/portraits/thumb/men/60.jpg"
        },
        "email": "bing.hattink@example.com",
        "location": {
            "street": {
                "number": 4631,
                "nome": "Dominee B Toesplein"
            },
            "city": "Rumpen",
            "state": "Drenthe",
            "country": "Netherlands",
            "postcode": 28355,
            "coordinates": {
                "latitude": "-86.3717",
                "longitude": "-99.8565"
            },
            "timezone": {
                "offset": "+8:00",
                "description": "Beijing, Perth, Singapore, Hong Kong"
            }
        },
        "id": "152659c4-0948-4927-8777-8840dd8bd649",
        "favorite": 1
    },
    {
        "nome": {
            "title": "Mr",
            "first": "Alexander",
            "last": "Madsen"
        },
        "phone": "92690406",
        "picture": {
            "large": "https://randomuser.me/api/portraits/men/74.jpg",
            "medium": "https://randomuser.me/api/portraits/med/men/74.jpg",
            "thumbnail": "https://randomuser.me/api/portraits/thumb/men/74.jpg"
        },
        "email": "alexander.madsen@example.com",
        "location": {
            "street": {
                "number": 5901,
                "nome": "Vesterlundvej"
            },
            "city": "Billum",
            "state": "Midtjylland",
            "country": "Denmark",
            "postcode": 83306,
            "coordinates": {
                "latitude": "0.3500",
                "longitude": "117.8470"
            },
            "timezone": {
                "offset": "+10:00",
                "description": "Eastern Australia, Guam, Vladivostok"
            }
        },
        "id": "cbfbdbc0-db46-4df8-b4ff-7902832185dd",
        "favorite": 0
    },
    {
        "nome": {
            "title": "Mr",
            "first": "German",
            "last": "Vidal"
        },
        "phone": "967-482-058",
        "picture": {
            "large": "https://randomuser.me/api/portraits/men/96.jpg",
            "medium": "https://randomuser.me/api/portraits/med/men/96.jpg",
            "thumbnail": "https://randomuser.me/api/portraits/thumb/men/96.jpg"
        },
        "email": "german.vidal@example.com",
        "location": {
            "street": {
                "number": 7283,
                "nome": "Avenida de Castilla"
            },
            "city": "Sevilla",
            "state": "Comunidad de Madrid",
            "country": "Spain",
            "postcode": 43267,
            "coordinates": {
                "latitude": "54.8644",
                "longitude": "-87.1906"
            },
            "timezone": {
                "offset": "-10:00",
                "description": "Hawaii"
            }
        },
        "id": "3d9ee4d9-030c-4bd2-b944-997d4e33fb47",
        "favorite": 0
    },
    {
        "nome": {
            "title": "Mrs",
            "first": "Rebecca",
            "last": "Miles"
        },
        "phone": "071-173-8294",
        "picture": {
            "large": "https://randomuser.me/api/portraits/women/39.jpg",
            "medium": "https://randomuser.me/api/portraits/med/women/39.jpg",
            "thumbnail": "https://randomuser.me/api/portraits/thumb/women/39.jpg"
        },
        "email": "rebecca.miles@example.com",
        "location": {
            "street": {
                "number": 2262,
                "nome": "School Lane"
            },
            "city": "Tullow",
            "state": "Monaghan",
            "country": "Ireland",
            "postcode": 23378,
            "coordinates": {
                "latitude": "-24.7594",
                "longitude": "49.4356"
            },
            "timezone": {
                "offset": "+9:00",
                "description": "Tokyo, Seoul, Osaka, Sapporo, Yakutsk"
            }
        },
        "id": "6dfe59e3-b6ed-40dc-84fd-373b27d3de4a",
        "favorite": 1
    },
    {
        "nome": {
            "title": "Mr",
            "first": "Stanley",
            "last": "Jenkins"
        },
        "phone": "06-3342-3286",
        "picture": {
            "large": "https://randomuser.me/api/portraits/men/95.jpg",
            "medium": "https://randomuser.me/api/portraits/med/men/95.jpg",
            "thumbnail": "https://randomuser.me/api/portraits/thumb/men/95.jpg"
        },
        "email": "stanley.jenkins@example.com",
        "location": {
            "street": {
                "number": 7549,
                "nome": "Forest Ln"
            },
            "city": "Perth",
            "state": "New South Wales",
            "country": "Australia",
            "postcode": 3370,
            "coordinates": {
                "latitude": "83.1566",
                "longitude": "-27.6831"
            },
            "timezone": {
                "offset": "+5:30",
                "description": "Bombay, Calcutta, Madras, New Delhi"
            }
        },
        "id": "c8f49190-781f-4e0c-affe-02d5a715553b",
        "favorite": 1
    },
    {
        "nome": {
            "title": "Miss",
            "first": "Mali",
            "last": "Venås"
        },
        "phone": "37157685",
        "picture": {
            "large": "https://randomuser.me/api/portraits/women/68.jpg",
            "medium": "https://randomuser.me/api/portraits/med/women/68.jpg",
            "thumbnail": "https://randomuser.me/api/portraits/thumb/women/68.jpg"
        },
        "email": "mali.venas@example.com",
        "location": {
            "street": {
                "number": 5005,
                "nome": "Dagaliveien"
            },
            "city": "Sander",
            "state": "Hedmark",
            "country": "Norway",
            "postcode": "6037",
            "coordinates": {
                "latitude": "32.1212",
                "longitude": "162.0410"
            },
            "timezone": {
                "offset": "0:00",
                "description": "Western Europe Time, London, Lisbon, Casablanca"
            }
        },
        "id": "09bb3185-965e-474f-88b8-4f0a31c9ce5b",
        "favorite": 1
    }
]